[
  {
   "date": "October 7, 2019",
   "title": "<i class='fas fa-exclamation-triangle'></i> Folcom to be turned off",
   "content": "As a follow up to an email I sent out on August 19, 2019, this is a further notification that I will be turning off Folcom on <strong><u>November 30, 2019</u></strong>. From May 2018 to date, Folcom has cost me $920.53 and a number of hours in maintaining it that I really think could be better used for the circuit instead.<br /><br />Therefore I would like to recommend you migrate off of Folcom and on to another system. One system I would highly recommend that is also free is Alba. More information regarding the system can be viewed via this <a href='http://www.youtube.com/watch?v=jKNFUuXdkCM&hd=1'>Youtube video</a> and if you would like to request a free account to test it out, please contact the following brother: Adin Ermie (Adin.Ermie@outlook.com). Feel free to mention I recommended it. The Auckland Japanese congregation, Melbourne South Mandarin (contact: James Stenhouse: jsten82@gmail.com) congregation, Perth South Mandarin, Perth Central Mandarin (contact: Samuel Durnford: samueldurnford@gmail.com) congregations and 2 Perth groups are also using it.<br /><br />Of course, any system you choose is completely up to you. The above is just 1 suggestion. If you have any questions at all, please feel free to contact me: <a href='mailto:tim@emergetec.com'>tim@emergetec.com</a>."
  },
  {
   "date": "June 18, 2019",
   "title": "<i class='fas fa-download' aria-hidden='true'></i> S-13 can now be downloaded",
   "content": "The <em>Territory Assignment Record</em> or <em>S-13</em> can now be downloaded from within reports."
  },
  {
   "date": "January 31, 2019",
   "title": "<i class='far fa-dizzy' aria-hidden='true'></i> Assigned Pages is fixed",
   "content": "Don't know why the <em>Assigned Pages</em> view stopped working but the fix <a href='https://stackoverflow.com/questions/54403417/unable-to-retrieve-react-dom-development-js-from-unpkg'>here</a> resolved it."
  },
  {
   "date": "July 15, 2018",
   "title": "<i class='fas fa-screwdriver' aria-hidden='true'></i> 2nd visits should be back",
   "content": "The 2nd visits orange bar should be back when doing map pages. Ensuring that the same addresses didn't get checked out to different users involved using a completely different technology so hence the little issues that have cropped up. Here's hoping this is the end of them."
  },
  {
   "date": "July 4, 2018",
   "title": "<i class='fas fa-laugh-wink' aria-hidden='true'></i> Checked in map pages all fixed (fingers-crossed)",
   "content": "Just released an update that should fix the issue whereby checked in map pages weren't going away from the Map Pages view. Sorry about any hassles caused. Let me know if the issue remains."
  },
  {
   "date": "June 4, 2018",
   "title": "<i class='fa fa-wrench' aria-hidden='true'></i> Fixed up 'Map Pages' view",
   "content": "The assign map pages view should now be fixed. The 'ToDo' value should also now be accurate. Please note, this displays all addresses that are available to be checked out. It doesn't include addresses already checked out. Just a clarification too, the 'last time contacted' feature will display the date the map page was checked in, not the date the address was visited."
   },
  {
   "date": "April 2, 2018",
   "title": "<i class='fa fa-history' aria-hidden='true'></i> Show visit history on map page",
   "content": "The map pages checked out to users now display a short visit history for each address. This will help users to have some idea about when the last time someone was contacted. Please let me know if you encounter any issues with this new feature."
   },
  {
   "date": "June 26, 2017",
   "title": "<i class='far fa-smile' aria-hidden='true'></i> Moved buttons in mobile view to black bar",
   "content": "The <em>Check In</em>, <em>Save</em>, and <em>Add Address</em> buttons have been moved to the black bar just below the map for better accessibility. Have also made some tweaks to the admin view for better usability."
   }
]